2.094005996694973419e+03 0.000000000000000000e+00 6.238912436014236391e+02
0.000000000000000000e+00 2.094334734115697756e+03 5.004439243080652773e+02
0.000000000000000000e+00 0.000000000000000000e+00 1.000000000000000000e+00
